<svg version="1.1" class="icon__vector" focusable="false" xmlns="http://www.w3.org/2000/svg" xmlns:xlink="http://www.w3.org/1999/xlink" x="0px" y="0px"
	 viewBox="0 0 32 32" style="enable-background:new 0 0 32 32;" xml:space="preserve">
<title>Slack</title>
<path d="M7.9,19.7c0,1.7-1.3,3-3,3S2,21.3,2,19.7c0-1.7,1.3-3,3-3h3L7.9,19.7L7.9,19.7z M9.4,19.7c0-1.7,1.3-3,3-3s3,1.3,3,3V27
	c0,1.7-1.3,3-3,3s-3-1.3-3-3V19.7z M12.3,7.9c-1.7,0-3-1.3-3-3s1.3-2.9,3-2.9s3,1.3,3,3v3L12.3,7.9C12.3,8,12.3,7.9,12.3,7.9z
	 M12.3,9.4c1.7,0,3,1.3,3,3s-1.3,3-3,3H5c-1.6,0-3-1.3-3-3s1.3-3,3-3H12.3z M24.1,12.3c0-1.7,1.3-3,3-3c1.7,0,3,1.3,3,3s-1.3,3-3,3
	h-3V12.3z M22.6,12.3c0,1.7-1.3,3-3,3c-1.7,0-3-1.3-3-3V5c0-1.7,1.3-3,3-3c1.7,0,3,1.3,3,3V12.3z M19.7,24.1c1.7,0,3,1.3,3,3
	c0,1.7-1.3,3-3,3c-1.7,0-3-1.3-3-3v-3H19.7z M19.7,22.6c-1.7,0-3-1.3-3-3c0-1.7,1.3-3,3-3H27c1.7,0,3,1.3,3,3c0,1.7-1.3,3-3,3H19.7z
	"/>
</svg>
