<svg version="1.1" class="icon__vector" focusable="false" xmlns="http://www.w3.org/2000/svg" xmlns:xlink="http://www.w3.org/1999/xlink" x="0px" y="0px"
	 viewBox="0 0 32 32" style="enable-background:new 0 0 32 32;" xml:space="preserve">
<title>YouTube</title>
<path d="M22,16c0-0.3-0.2-0.7-0.4-0.9l-7.9-4.9c-0.3-0.2-0.7-0.2-1.1,0c-0.3,0.2-0.5,0.4-0.5,0.9V21c0,0.3,0.2,0.6,0.5,0.9
	c0.2,0.1,0.3,0.1,0.5,0.1s0.3-0.1,0.5-0.2l7.9-4.9C21.8,16.6,22,16.3,22,16z M29.9,16c0,1,0,1.7,0,2.4c0,0.5-0.1,1.3-0.2,2
	c-0.1,0.9-0.2,1.6-0.3,2.2c-0.2,0.7-0.5,1.4-1.1,1.9s-1.2,0.7-1.9,0.9c-2.2,0.2-5.8,0.3-10.5,0.3s-8.1,0-10.4-0.2
	c-0.7-0.1-1.4-0.3-1.9-0.9s-1-1.2-1.1-1.9c-0.2-0.6-0.2-1.4-0.3-2.2s0-1.5-0.1-2c0-0.6,0-1.5,0-2.5c0-1,0-1.7,0-2.4
	c0-0.6,0.1-1.3,0.2-2c0.1-0.7,0.2-1.6,0.3-2.2c0.2-0.9,0.5-1.5,1.1-2s1.2-0.9,1.9-1c2.2-0.2,5.8-0.3,10.5-0.3s8.1,0.1,10.5,0.3
	c0.6,0.1,1.4,0.3,1.9,0.9s1,1.2,1.1,1.9c0.2,0.7,0.2,1.4,0.3,2.2c0.1,0.9,0.1,1.6,0.2,2C29.9,14.3,29.9,15,29.9,16z"/>
</svg>
