<svg version="1.1" class="icon__vector" focusable="false" xmlns="http://www.w3.org/2000/svg" xmlns:xlink="http://www.w3.org/1999/xlink" x="0px" y="0px"
	 viewBox="0 0 32 32" style="enable-background:new 0 0 32 32;" xml:space="preserve">
<title>SoundCloud</title>
<path d="M10.9,22.6l0.2-3.4L10.9,12c0-0.1,0-0.2-0.1-0.2c-0.1-0.1-0.1-0.1-0.2-0.1c-0.1,0-0.2,0-0.2,0.1c-0.1,0.1-0.1,0.1-0.1,0.2
	L10,19.3l0.2,3.4c0,0.1,0,0.2,0.1,0.2s0.1,0.1,0.2,0.1C10.8,22.9,10.9,22.8,10.9,22.6z M15,22.2l0.1-2.9L15,11.1
	c0-0.1-0.1-0.3-0.2-0.3c-0.1,0-0.1-0.1-0.2-0.1s-0.1,0-0.2,0.1c-0.1,0.1-0.2,0.2-0.2,0.3l0,0.1l-0.1,8c0,0,0.1,1.1,0.1,3.3v0
	c0,0.1,0,0.2,0.1,0.2c0.1,0.1,0.2,0.1,0.3,0.1c0.1,0,0.2,0,0.3-0.1c0.1-0.1,0.1-0.2,0.1-0.3L15,22.2z M0.5,17.5l0.3,1.8L0.5,21
	c0,0.1-0.1,0.1-0.1,0.1s-0.1,0-0.1-0.1L0,19.3l0.2-1.8c0-0.1,0.1-0.1,0.1-0.1S0.5,17.4,0.5,17.5z M1.7,16.4L2,19.3l-0.4,2.8
	c0,0.1-0.1,0.1-0.1,0.1c-0.1,0-0.1,0-0.1-0.1l-0.3-2.8l0.3-2.9c0-0.1,0-0.1,0.1-0.1C1.6,16.3,1.7,16.3,1.7,16.4z M3,15.9l0.3,3.4
	L3,22.6c0,0.1,0,0.1-0.2,0.1c-0.1,0-0.2,0-0.2-0.1l-0.3-3.3l0.3-3.4c0-0.1,0.1-0.2,0.2-0.2C2.9,15.7,3,15.8,3,15.9z M4.3,15.8
	l0.3,3.5l-0.3,3.4c0,0.1-0.1,0.2-0.2,0.2c-0.1,0-0.2-0.1-0.2-0.2l-0.3-3.4l0.3-3.5c0-0.1,0.1-0.2,0.2-0.2
	C4.2,15.6,4.2,15.6,4.3,15.8z M5.6,16l0.3,3.2l-0.3,3.4c0,0.1-0.1,0.2-0.2,0.2c-0.1,0-0.1,0-0.1-0.1c0,0-0.1-0.1-0.1-0.2l-0.3-3.4
	L5.1,16c0-0.1,0-0.1,0.1-0.1c0,0,0.1-0.1,0.1-0.1C5.5,15.8,5.6,15.9,5.6,16z M6.9,14l0.3,5.3l-0.3,3.4c0,0.1,0,0.1-0.1,0.2
	s-0.1,0.1-0.2,0.1c-0.2,0-0.2-0.1-0.2-0.2l-0.2-3.4L6.4,14c0-0.2,0.1-0.2,0.2-0.2c0.1,0,0.1,0,0.2,0.1C6.9,13.9,6.9,13.9,6.9,14z
	 M8.2,12.8l0.3,6.5l-0.3,3.4c0,0.1,0,0.1-0.1,0.2S8,22.9,7.9,22.9c-0.2,0-0.3-0.1-0.3-0.3l-0.2-3.4l0.2-6.5c0-0.2,0.1-0.3,0.3-0.3
	c0.1,0,0.1,0,0.2,0.1C8.2,12.7,8.2,12.7,8.2,12.8z M9.5,12.2l0.2,7l-0.2,3.4c0,0.2-0.1,0.3-0.3,0.3c-0.2,0-0.3-0.1-0.3-0.3l-0.2-3.4
	l0.2-7c0-0.1,0-0.2,0.1-0.2c0.1-0.1,0.1-0.1,0.2-0.1c0.1,0,0.1,0,0.2,0.1C9.5,12.1,9.5,12.2,9.5,12.2z M12.2,12.2l0.2,7.1l-0.2,3.3
	c0,0.1,0,0.2-0.1,0.2s-0.1,0.1-0.2,0.1s-0.2,0-0.2-0.1c-0.1-0.1-0.1-0.1-0.1-0.2l-0.2-3.3l0.2-7.1c0-0.1,0-0.2,0.1-0.2
	c0.1-0.1,0.1-0.1,0.2-0.1s0.2,0,0.2,0.1C12.2,12,12.2,12.1,12.2,12.2z M13.6,12.4l0.2,6.8l-0.2,3.3c0,0.1,0,0.2-0.1,0.3
	s-0.2,0.1-0.3,0.1c-0.1,0-0.2,0-0.3-0.1c-0.1-0.1-0.1-0.2-0.1-0.3l-0.2-3.3l0.2-6.8c0-0.1,0.1-0.2,0.1-0.3s0.2-0.1,0.3-0.1
	c0.1,0,0.2,0,0.3,0.1S13.6,12.3,13.6,12.4z M16.6,19.3l-0.2,3.2c0,0.1,0,0.2-0.1,0.3s-0.2,0.1-0.3,0.1s-0.2,0-0.3-0.1
	c-0.1-0.1-0.1-0.2-0.1-0.3l-0.1-1.6l-0.1-1.6l0.2-8.8v0c0-0.1,0.1-0.2,0.2-0.3c0.1-0.1,0.2-0.1,0.3-0.1c0.1,0,0.1,0,0.2,0.1
	c0.1,0.1,0.2,0.2,0.2,0.4L16.6,19.3z M32,19c0,1.1-0.4,2-1.1,2.8c-0.8,0.8-1.7,1.1-2.8,1.1H17.1c-0.1,0-0.2-0.1-0.3-0.1
	s-0.1-0.2-0.1-0.3V10c0-0.2,0.1-0.4,0.4-0.5c0.8-0.3,1.6-0.5,2.5-0.5c1.8,0,3.4,0.6,4.7,1.8s2.1,2.7,2.2,4.5c0.5-0.2,1-0.3,1.5-0.3
	c1.1,0,2,0.4,2.8,1.2C31.6,17,32,17.9,32,19z"/>
</svg>
