<svg version="1.1" class="icon__vector" focusable="false" xmlns="http://www.w3.org/2000/svg" xmlns:xlink="http://www.w3.org/1999/xlink" x="0px" y="0px"
	 viewBox="0 0 32 32" style="enable-background:new 0 0 32 32;" xml:space="preserve">
<path d="M29,4.5v23.2c0,0.8-0.6,1.5-1.5,1.5H21V18.9h3.4l0.5-3.9H21v-2.5c0-1.1,0.3-1.9,1.9-1.9h2V7.1c-0.3-0.1-1.6-0.2-3-0.2
	c-3,0-5,1.8-5,5.2V15h-3.4v3.9h3.4V29H4.5C3.6,29,3,28.4,3,27.5V4.5C3,3.7,3.7,3,4.5,3h23.2C28.4,3,29,3.7,29,4.5z"/>
</svg>
