<svg version="1.1" class="icon__vector" focusable="false" xmlns="http://www.w3.org/2000/svg" xmlns:xlink="http://www.w3.org/1999/xlink" x="0px" y="0px"
	 viewBox="0 0 32 32" style="enable-background:new 0 0 32 32;" xml:space="preserve">
<title>Twig</title>
<path d="M11.1,26.6c-1-0.1-1.6,0.2-2,0.7c-0.2-2.9-0.8-7.5-1.5-10.6c0.1,1.9,0.2,6.6,0.2,9.8c-0.4-1-1-1.8-1.8-2.4
	c1,1.2,1.7,2.7,1.6,6.6l0.8,0c0,0.1,0,0.2,0,0.2c0,0,1.1-0.1,1-0.2C9.1,29.2,9.3,26.7,11.1,26.6z M8.1,28.7c-0.1,0-0.3-0.1-0.3-0.3
	c0-0.1,0.1-0.3,0.3-0.3c0.1,0,0.3,0.1,0.3,0.3S8.3,28.7,8.1,28.7z M8.8,28.7c-0.1,0-0.3-0.1-0.3-0.3c0-0.1,0.1-0.3,0.3-0.3
	c0.1,0,0.3,0.1,0.3,0.3S8.9,28.7,8.8,28.7z M6.2,30.1l0.4,0.7h0.2 M7.3,31h0.5l-0.7-1.8 M9.9,30.9h0.3l0.2-1.4 M10.7,30.5h0.2L11,30
	 M24.4,1.1C23.9,1,23.5,1,23.1,1c-1,0.2-1.6,0.8-2.4,1.7c-0.4,0.5-0.8,1-1.2,1.6c-0.5,0.8-1,1.6-1.4,2.5c-0.2,0.4-0.3,0.7-0.5,1.4
	c-0.3,1.1-0.6,2.2-0.9,3.3c0,0,0,0.2-0.1,0.3c-0.4,2.3-0.7,4.6-0.9,6.9c0,0.7-0.1,1.3-0.1,2c-1-3.2-2.7-6.2-5.1-7.8
	c2.4,3,4.2,6.8,4,16.5l0,0l2.1,0.1c0,0.3,0.1,0.6,0.1,0.6c0.1,0.1,2.7-0.2,2.6-0.5c-1-3.9-0.7-10.1,3.9-10.4
	c-2.9-0.4-4.6,0.7-5.5,2.4c0-2.9,0.2-5.2,0.3-6.5c0.1-0.7,0.3-2.1,0.6-3.6c0.2-1.2,0.3-1.6,0.5-2c0.1-0.3,0.2-0.9,0.6-1.8
	c0.1-0.4,0.2-0.7,0.3-1.1c0.2-0.5,0.2-0.7,0.3-1c0-0.1,0.2-0.6,0.6-1.4c0.2-0.6,0.5-1.1,0.8-1.6c0.5-0.7,0.9-1.3,1.6-1.5
	c1.2-0.3,2.4,1.2,2.5,1.2C26.1,2.4,25.4,1.5,24.4,1.1z M15.9,24.6c-0.4,0-0.7-0.3-0.7-0.7c0-0.4,0.3-0.7,0.7-0.7
	c0.4,0,0.7,0.3,0.7,0.7C16.6,24.3,16.3,24.6,15.9,24.6z M18.3,24c0,0.4-0.3,0.7-0.7,0.7c-0.4,0-0.7-0.3-0.7-0.7
	c0-0.4,0.3-0.7,0.7-0.7C18,23.3,18.3,23.6,18.3,24z M11.2,27.9l0.9,1.6h0.5 M13.8,30.3H15l-1.7-4.5 M20.4,30h0.7l0.6-3.5 M22.3,29
	h0.6l0.3-1.3"/>
</svg>
